Working with Raster Data in R
…
---

# What does the dataframe for Franks Tract look like?

Each row represents a pixel either completely or partially within the Franks Tract polygon 

```r
df_hab_sat_extr_fr <- as_tibble(df_hab_sat_extr$df_rast_extr[[1]])
df_hab_sat_extr_fr
```

```
## # A tibble: 264 x 2
##    value coverage_fraction
##    <dbl>             <dbl>
##  1   252          0.00865 
##  2   252          0.136   
##  3   252          0.000332
##  4   254          0.0690  
##  5   254          0.285   
##  6   254          0.00363 
##  7   252          0.130   
##  8   254          0.723   
##  9   152          1       
## 10   161          0.812   
## # ... with 254 more rows
```
…
df_franks_cat
```
]
]

.pull-right[
### Output

***

```
## # A tibble: 166 x 3
##    value coverage_fraction CI_category       
##    <dbl>             <dbl> <chr>             
##  1   152                 1 High              
##  2   254                 1 Invalid_or_missing
##  3   157                 1 High              
##  4   151                 1 High              
##  5   147                 1 High              
##  6   156                 1 High              
##  7   254                 1 Invalid_or_missing
##  8   252                 1 Invalid_or_missing
##  9     0                 1 Non_detect        
## 10     0                 1 Non_detect        
## # ... with 156 more rows
```
…
